SD Tutorial 1: First-Order Positive Feedback – SD Tutorials
…
# pivot and clean
d <- sim_data %>%
  relocate(sim, .before = time) %>%
  pivot_longer(-c(sim:time)) %>%mutate(value = as.numeric(value),
         name = case_when(
           name == "stock"             ~ "Deer in population",
           name == "change_in_stock"   ~ "Population growth (deer/yr)"
         ),
         name = factor(name, levels = c("Deer in population", "Population growth (deer/yr)")),
         date = round_date(date_decimal(time), "month"))  %>%
  select(-time)

print(d)

# A tibble: 162 × 4
   sim       name                        value date               
   <deSolve> <fct>                       <dbl> <dttm>             
 1 1         Deer in population          100   2000-01-01 00:00:00
 2 1         Population growth (deer/yr)  10   2000-01-01 00:00:00
 3 1         Deer in population          102.  2000-04-01 00:00:00
 4 1         Population growth (deer/yr)  10.2 2000-04-01 00:00:00
 5 1         Deer in population          105.  2000-07-01 00:00:00
 6 1         Population growth (deer/yr)  10.5 2000-07-01 00:00:00
 7 1         Deer in population          108.  2000-10-01 00:00:00
 8 1         Population growth (deer/yr)  10.8 2000-10-01 00:00:00
 9 1         Deer in population          110.  2001-01-01 00:00:00
10 1         Population growth (deer/yr)  11.0 2001-01-01 00:00:00
# ℹ 152 more rows
…
